2018-05-14 20:11:25
ORDER ID: 5827 
Cart cloned 
New Order Payment module: monerishosted 
addPayment enter to the function
Add Payment function started 
Add Payment require is done . 1 
Add Payment select is done 
Order Payment Transaction Info: mpgResponse Object
(
    [responseData] => Array
        (
            [DataKey] => eBfBhae8CMJ7uujTwghNOP3E7
            [ReceiptId] => iso-2586-8283785842
            [ReferenceNum] => 660144080016937900
            [ResponseCode] => 027
            [ISO] => 01
            [AuthCode] => 572799
            [Message] => APPROVED           *                    =
            [TransTime] => 20:11:37
            [TransDate] => 2018-05-14
            [TransType] => 00
            [Complete] => true
            [TransAmount] => 48.37
            [CardType] => V
            [TransID] => 513412-0_11
            [TimedOut] => false
            [CorporateCard] => false
            [RecurSuccess] => null
            [AvsResultCode] => M
            [CvdResultCode] => null
            [ResSuccess] => true
            [PaymentType] => cc
            [IsVisaDebit] => false
            [HostId] => 1F8134726978804
        )

    [p] => Resource id #114
    [currentTag] => /dev/null
    [purchaseHash] => Array
        (
        )

    [refundHash] => 
    [correctionHash] => Array
        (
        )

    [isBatchTotals] => 
    [term_id] => 
    [receiptHash] => Array
        (
        )

    [ecrHash] => Array
        (
        )

    [CardType] => 
    [currentTxnType] => 
    [ecrs] => Array
        (
        )

    [cards] => Array
        (
        )

    [cardHash] => Array
        (
        )

    [resolveData] => Array
        (
            [cust_id] => cust1
            [phone] => 416 787 2465
            [email] => pkrava77@gmail.com
            [note] => 
            [expdate] => 2001
            [avs_street_name] => 8035 Pennsylvania Road
            [avs_zipcode] => 55438
            [masked_pan] => 4761***5637
            [crypt_type] => 7
        )

    [resolveDataHash] => 
    [data_key] => 
    [DataKeys] => Array
        (
        )

    [ACSUrl] => 
    [_successful_avs_codes] => Array
        (
            [0] => A
            [1] => B
            [2] => D
            [3] => M
            [4] => P
            [5] => W
            [6] => X
            [7] => Y
            [8] => Z
        )

    [_successful_cvd_codes] => Array
        (
            [0] => 1M
            [1] => 1Y
            [2] => 1P
            [3] => 1S
            [4] => 1U
        )

    [isResolveData] => 0
)
 
OrderPayment completed 
Hook actionOrderCloned started
NEW ORDER ID: 5867 
recurring_date updated 

2018-05-14 20:11:40
ORDER ID: 5826 
Cart cloned 
New Order Payment module: monerishosted 
addPayment enter to the function
Add Payment function started 
Add Payment require is done . 1 
Add Payment select is done 
Order Payment Transaction Info: mpgResponse Object
(
    [responseData] => Array
        (
            [DataKey] => YLExf6XyMw5k25CcPbCDCtn77
            [ReceiptId] => iso-2587-1416720639
            [ReferenceNum] => 660144080016937970
            [ResponseCode] => 027
            [ISO] => 01
            [AuthCode] => 632258
            [Message] => APPROVED           *                    =
            [TransTime] => 20:11:51
            [TransDate] => 2018-05-14
            [TransType] => 00
            [Complete] => true
            [TransAmount] => 49.60
            [CardType] => V
            [TransID] => 513419-0_11
            [TimedOut] => false
            [CorporateCard] => false
            [RecurSuccess] => null
            [AvsResultCode] => M
            [CvdResultCode] => null
            [ResSuccess] => true
            [PaymentType] => cc
            [IsVisaDebit] => false
            [HostId] => 1F8134727118860
        )

    [p] => Resource id #219
    [currentTag] => /dev/null
    [purchaseHash] => Array
        (
        )

    [refundHash] => 
    [correctionHash] => Array
        (
        )

    [isBatchTotals] => 
    [term_id] => 
    [receiptHash] => Array
        (
        )

    [ecrHash] => Array
        (
        )

    [CardType] => 
    [currentTxnType] => 
    [ecrs] => Array
        (
        )

    [cards] => Array
        (
        )

    [cardHash] => Array
        (
        )

    [resolveData] => Array
        (
            [cust_id] => cust1
            [phone] => 416-787-2465
            [email] => pkrava77@gmail.com
            [note] => 
            [expdate] => 2101
            [avs_street_name] => 105 Tycos Drive
            [avs_zipcode] => M6B 1W3
            [masked_pan] => 4761***5637
            [crypt_type] => 7
        )

    [resolveDataHash] => 
    [data_key] => 
    [DataKeys] => Array
        (
        )

    [ACSUrl] => 
    [_successful_avs_codes] => Array
        (
            [0] => A
            [1] => B
            [2] => D
            [3] => M
            [4] => P
            [5] => W
            [6] => X
            [7] => Y
            [8] => Z
        )

    [_successful_cvd_codes] => Array
        (
            [0] => 1M
            [1] => 1Y
            [2] => 1P
            [3] => 1S
            [4] => 1U
        )

    [isResolveData] => 0
)
 
OrderPayment completed 
Hook actionOrderCloned started
NEW ORDER ID: 5868 
recurring_date updated 

2018-05-14 20:11:54
ORDER ID: 5768 
Cart cloned 
New Order Payment module: monerishosted 
addPayment enter to the function
Add Payment function started 
Add Payment require is done . 1 
Add Payment select is done 
Order Payment Transaction Info: mpgResponse Object
(
    [responseData] => Array
        (
            [DataKey] => 6sPnCNhEVIWj781rymcxYIa17
            [ReceiptId] => iso-2588-2639881995
            [ReferenceNum] => 660144080016938030
            [ResponseCode] => 027
            [ISO] => 01
            [AuthCode] => 843366
            [Message] => APPROVED           *                    =
            [TransTime] => 20:12:00
            [TransDate] => 2018-05-14
            [TransType] => 00
            [Complete] => true
            [TransAmount] => 35.47
            [CardType] => V
            [TransID] => 513425-0_11
            [TimedOut] => false
            [CorporateCard] => false
            [RecurSuccess] => null
            [AvsResultCode] => M
            [CvdResultCode] => null
            [ResSuccess] => true
            [PaymentType] => cc
            [IsVisaDebit] => false
            [HostId] => 1F8134727208921
        )

    [p] => Resource id #294
    [currentTag] => /dev/null
    [purchaseHash] => Array
        (
        )

    [refundHash] => 
    [correctionHash] => Array
        (
        )

    [isBatchTotals] => 
    [term_id] => 
    [receiptHash] => Array
        (
        )

    [ecrHash] => Array
        (
        )

    [CardType] => 
    [currentTxnType] => 
    [ecrs] => Array
        (
        )

    [cards] => Array
        (
        )

    [cardHash] => Array
        (
        )

    [resolveData] => Array
        (
            [cust_id] => cust1
            [phone] => 416-787-2465
            [email] => friend1@isomers.ca
            [note] => 
            [expdate] => 2801
            [avs_street_name] => 105 Tycos Drive
            [avs_zipcode] => M6B 1W3
            [masked_pan] => 4761***5637
            [crypt_type] => 7
        )

    [resolveDataHash] => 
    [data_key] => 
    [DataKeys] => Array
        (
        )

    [ACSUrl] => 
    [_successful_avs_codes] => Array
        (
            [0] => A
            [1] => B
            [2] => D
            [3] => M
            [4] => P
            [5] => W
            [6] => X
            [7] => Y
            [8] => Z
        )

    [_successful_cvd_codes] => Array
        (
            [0] => 1M
            [1] => 1Y
            [2] => 1P
            [3] => 1S
            [4] => 1U
        )

    [isResolveData] => 0
)
 
OrderPayment completed 
Hook actionOrderCloned started
NEW ORDER ID: 5869 
recurring_date updated 

2018-05-15 20:10:40
ORDER ID: 5827 
Cart cloned 
New Order Payment module: monerishosted 
addPayment enter to the function
Add Payment function started 
Add Payment require is done . 1 
Add Payment select is done 
Order Payment Transaction Info: mpgResponse Object
(
    [responseData] => Array
        (
            [DataKey] => eBfBhae8CMJ7uujTwghNOP3E7
            [ReceiptId] => null
            [ReferenceNum] => null
            [ResponseCode] => null
            [ISO] => null
            [AuthCode] => null
            [Message] => Transaction Not Completed  Timed Out
            [TransTime] => null
            [TransDate] => null
            [TransType] => null
            [Complete] => false
            [TransAmount] => null
            [CardType] => null
            [TransID] => null
            [TimedOut] => true
            [CorporateCard] => false
            [RecurSuccess] => null
            [AvsResultCode] => null
            [CvdResultCode] => null
            [ResSuccess] => true
            [PaymentType] => cc
            [IsVisaDebit] => false
        )

    [p] => Resource id #114
    [currentTag] => /dev/null
    [purchaseHash] => Array
        (
        )

    [refundHash] => 
    [correctionHash] => Array
        (
        )

    [isBatchTotals] => 
    [term_id] => 
    [receiptHash] => Array
        (
        )

    [ecrHash] => Array
        (
        )

    [CardType] => 
    [currentTxnType] => 
    [ecrs] => Array
        (
        )

    [cards] => Array
        (
        )

    [cardHash] => Array
        (
        )

    [resolveData] => Array
        (
            [cust_id] => cust1
            [phone] => 416 787 2465
            [email] => pkrava77@gmail.com
            [note] => 
            [expdate] => 2001
            [avs_street_name] => 8035 Pennsylvania Road
            [avs_zipcode] => 55438
            [masked_pan] => 4761***5637
            [crypt_type] => 7
        )

    [resolveDataHash] => 
    [data_key] => 
    [DataKeys] => Array
        (
        )

    [ACSUrl] => 
    [_successful_avs_codes] => Array
        (
            [0] => A
            [1] => B
            [2] => D
            [3] => M
            [4] => P
            [5] => W
            [6] => X
            [7] => Y
            [8] => Z
        )

    [_successful_cvd_codes] => Array
        (
            [0] => 1M
            [1] => 1Y
            [2] => 1P
            [3] => 1S
            [4] => 1U
        )

    [isResolveData] => 0
)
 
OrderPayment ERROR: { () } 
Hook actionOrderCloned started
NEW ORDER ID: 5870 
recurring_date updated 

2018-05-15 20:10:56
ORDER ID: 5826 
Cart cloned 
New Order Payment module: monerishosted 
addPayment enter to the function
Add Payment function started 
Add Payment require is done . 1 
Add Payment select is done 
Order Payment Transaction Info: mpgResponse Object
(
    [responseData] => Array
        (
            [DataKey] => YLExf6XyMw5k25CcPbCDCtn77
            [ReceiptId] => null
            [ReferenceNum] => null
            [ResponseCode] => null
            [ISO] => null
            [AuthCode] => null
            [Message] => Transaction Not Completed  Timed Out
            [TransTime] => null
            [TransDate] => null
            [TransType] => null
            [Complete] => false
            [TransAmount] => null
            [CardType] => null
            [TransID] => null
            [TimedOut] => true
            [CorporateCard] => false
            [RecurSuccess] => null
            [AvsResultCode] => null
            [CvdResultCode] => null
            [ResSuccess] => true
            [PaymentType] => cc
            [IsVisaDebit] => false
        )

    [p] => Resource id #219
    [currentTag] => /dev/null
    [purchaseHash] => Array
        (
        )

    [refundHash] => 
    [correctionHash] => Array
        (
        )

    [isBatchTotals] => 
    [term_id] => 
    [receiptHash] => Array
        (
        )

    [ecrHash] => Array
        (
        )

    [CardType] => 
    [currentTxnType] => 
    [ecrs] => Array
        (
        )

    [cards] => Array
        (
        )

    [cardHash] => Array
        (
        )

    [resolveData] => Array
        (
            [cust_id] => cust1
            [phone] => 416-787-2465
            [email] => pkrava77@gmail.com
            [note] => 
            [expdate] => 2101
            [avs_street_name] => 105 Tycos Drive
            [avs_zipcode] => M6B 1W3
            [masked_pan] => 4761***5637
            [crypt_type] => 7
        )

    [resolveDataHash] => 
    [data_key] => 
    [DataKeys] => Array
        (
        )

    [ACSUrl] => 
    [_successful_avs_codes] => Array
        (
            [0] => A
            [1] => B
            [2] => D
            [3] => M
            [4] => P
            [5] => W
            [6] => X
            [7] => Y
            [8] => Z
        )

    [_successful_cvd_codes] => Array
        (
            [0] => 1M
            [1] => 1Y
            [2] => 1P
            [3] => 1S
            [4] => 1U
        )

    [isResolveData] => 0
)
 
OrderPayment ERROR: { () } 
Hook actionOrderCloned started
NEW ORDER ID: 5871 
recurring_date updated 

2018-05-15 20:11:09
ORDER ID: 5768 
Cart cloned 
New Order Payment module: monerishosted 
addPayment enter to the function
Add Payment function started 
Add Payment require is done . 1 
Add Payment select is done 
Order Payment Transaction Info: mpgResponse Object
(
    [responseData] => Array
        (
            [DataKey] => 6sPnCNhEVIWj781rymcxYIa17
            [ReceiptId] => null
            [ReferenceNum] => null
            [ResponseCode] => null
            [ISO] => null
            [AuthCode] => null
            [Message] => Transaction Not Completed  Timed Out
            [TransTime] => null
            [TransDate] => null
            [TransType] => null
            [Complete] => false
            [TransAmount] => null
            [CardType] => null
            [TransID] => null
            [TimedOut] => true
            [CorporateCard] => false
            [RecurSuccess] => null
            [AvsResultCode] => null
            [CvdResultCode] => null
            [ResSuccess] => true
            [PaymentType] => cc
            [IsVisaDebit] => false
        )

    [p] => Resource id #294
    [currentTag] => /dev/null
    [purchaseHash] => Array
        (
        )

    [refundHash] => 
    [correctionHash] => Array
        (
        )

    [isBatchTotals] => 
    [term_id] => 
    [receiptHash] => Array
        (
        )

    [ecrHash] => Array
        (
        )

    [CardType] => 
    [currentTxnType] => 
    [ecrs] => Array
        (
        )

    [cards] => Array
        (
        )

    [cardHash] => Array
        (
        )

    [resolveData] => Array
        (
            [cust_id] => cust1
            [phone] => 416-787-2465
            [email] => friend1@isomers.ca
            [note] => 
            [expdate] => 2801
            [avs_street_name] => 105 Tycos Drive
            [avs_zipcode] => M6B 1W3
            [masked_pan] => 4761***5637
            [crypt_type] => 7
        )

    [resolveDataHash] => 
    [data_key] => 
    [DataKeys] => Array
        (
        )

    [ACSUrl] => 
    [_successful_avs_codes] => Array
        (
            [0] => A
            [1] => B
            [2] => D
            [3] => M
            [4] => P
            [5] => W
            [6] => X
            [7] => Y
            [8] => Z
        )

    [_successful_cvd_codes] => Array
        (
            [0] => 1M
            [1] => 1Y
            [2] => 1P
            [3] => 1S
            [4] => 1U
        )

    [isResolveData] => 0
)
 
OrderPayment ERROR: { () } 
Hook actionOrderCloned started
NEW ORDER ID: 5872 
recurring_date updated 

2018-05-16 20:10:04
ORDER ID: 5827 
Cart cloned 
New Order Payment module: monerishosted 
addPayment enter to the function
Add Payment function started 
Add Payment require is done . 1 
Add Payment select is done 
Order Payment Transaction Info: mpgResponse Object
(
    [responseData] => Array
        (
            [DataKey] => null
            [ReceiptId] => null
            [ReferenceNum] => null
            [ResponseCode] => 983
            [ISO] => null
            [AuthCode] => null
            [Message] => Can not find previous
            [TransTime] => null
            [TransDate] => null
            [TransType] => null
            [Complete] => false
            [TransAmount] => null
            [CardType] => null
            [TransID] => null
            [TimedOut] => false
            [CorporateCard] => null
            [RecurSuccess] => null
            [AvsResultCode] => null
            [CvdResultCode] => null
            [ResSuccess] => false
            [PaymentType] => null
            [IsVisaDebit] => null
            [ResolveData] => null
        )

    [p] => Resource id #114
    [currentTag] => /dev/null
    [purchaseHash] => Array
        (
        )

    [refundHash] => 
    [correctionHash] => Array
        (
        )

    [isBatchTotals] => 
    [term_id] => 
    [receiptHash] => Array
        (
        )

    [ecrHash] => Array
        (
        )

    [CardType] => 
    [currentTxnType] => 
    [ecrs] => Array
        (
        )

    [cards] => Array
        (
        )

    [cardHash] => Array
        (
        )

    [resolveData] => 
    [resolveDataHash] => 
    [data_key] => 
    [DataKeys] => Array
        (
        )

    [ACSUrl] => 
    [_successful_avs_codes] => Array
        (
            [0] => A
            [1] => B
            [2] => D
            [3] => M
            [4] => P
            [5] => W
            [6] => X
            [7] => Y
            [8] => Z
        )

    [_successful_cvd_codes] => Array
        (
            [0] => 1M
            [1] => 1Y
            [2] => 1P
            [3] => 1S
            [4] => 1U
        )

    [isResolveData] => 0
)
 
OrderPayment ERROR: { () } 
Hook actionOrderCloned started
NEW ORDER ID: 5875 
recurring_date updated 

2018-05-16 20:10:20
ORDER ID: 5826 
Cart cloned 
New Order Payment module: monerishosted 
addPayment enter to the function
Add Payment function started 
Add Payment require is done . 1 
Add Payment select is done 
Order Payment Transaction Info: mpgResponse Object
(
    [responseData] => Array
        (
            [DataKey] => null
            [ReceiptId] => null
            [ReferenceNum] => null
            [ResponseCode] => 983
            [ISO] => null
            [AuthCode] => null
            [Message] => Can not find previous
            [TransTime] => null
            [TransDate] => null
            [TransType] => null
            [Complete] => false
            [TransAmount] => null
            [CardType] => null
            [TransID] => null
            [TimedOut] => false
            [CorporateCard] => null
            [RecurSuccess] => null
            [AvsResultCode] => null
            [CvdResultCode] => null
            [ResSuccess] => false
            [PaymentType] => null
            [IsVisaDebit] => null
            [ResolveData] => null
        )

    [p] => Resource id #219
    [currentTag] => /dev/null
    [purchaseHash] => Array
        (
        )

    [refundHash] => 
    [correctionHash] => Array
        (
        )

    [isBatchTotals] => 
    [term_id] => 
    [receiptHash] => Array
        (
        )

    [ecrHash] => Array
        (
        )

    [CardType] => 
    [currentTxnType] => 
    [ecrs] => Array
        (
        )

    [cards] => Array
        (
        )

    [cardHash] => Array
        (
        )

    [resolveData] => 
    [resolveDataHash] => 
    [data_key] => 
    [DataKeys] => Array
        (
        )

    [ACSUrl] => 
    [_successful_avs_codes] => Array
        (
            [0] => A
            [1] => B
            [2] => D
            [3] => M
            [4] => P
            [5] => W
            [6] => X
            [7] => Y
            [8] => Z
        )

    [_successful_cvd_codes] => Array
        (
            [0] => 1M
            [1] => 1Y
            [2] => 1P
            [3] => 1S
            [4] => 1U
        )

    [isResolveData] => 0
)
 
OrderPayment ERROR: { () } 
Hook actionOrderCloned started
NEW ORDER ID: 5876 
recurring_date updated 

2018-05-16 20:10:34
ORDER ID: 5768 
Cart cloned 
New Order Payment module: monerishosted 
addPayment enter to the function
Add Payment function started 
Add Payment require is done . 1 
Add Payment select is done 
Order Payment Transaction Info: mpgResponse Object
(
    [responseData] => Array
        (
            [DataKey] => null
            [ReceiptId] => null
            [ReferenceNum] => null
            [ResponseCode] => 983
            [ISO] => null
            [AuthCode] => null
            [Message] => Can not find previous
            [TransTime] => null
            [TransDate] => null
            [TransType] => null
            [Complete] => false
            [TransAmount] => null
            [CardType] => null
            [TransID] => null
            [TimedOut] => false
            [CorporateCard] => null
            [RecurSuccess] => null
            [AvsResultCode] => null
            [CvdResultCode] => null
            [ResSuccess] => false
            [PaymentType] => null
            [IsVisaDebit] => null
            [ResolveData] => null
        )

    [p] => Resource id #294
    [currentTag] => /dev/null
    [purchaseHash] => Array
        (
        )

    [refundHash] => 
    [correctionHash] => Array
        (
        )

    [isBatchTotals] => 
    [term_id] => 
    [receiptHash] => Array
        (
        )

    [ecrHash] => Array
        (
        )

    [CardType] => 
    [currentTxnType] => 
    [ecrs] => Array
        (
        )

    [cards] => Array
        (
        )

    [cardHash] => Array
        (
        )

    [resolveData] => 
    [resolveDataHash] => 
    [data_key] => 
    [DataKeys] => Array
        (
        )

    [ACSUrl] => 
    [_successful_avs_codes] => Array
        (
            [0] => A
            [1] => B
            [2] => D
            [3] => M
            [4] => P
            [5] => W
            [6] => X
            [7] => Y
            [8] => Z
        )

    [_successful_cvd_codes] => Array
        (
            [0] => 1M
            [1] => 1Y
            [2] => 1P
            [3] => 1S
            [4] => 1U
        )

    [isResolveData] => 0
)
 
OrderPayment ERROR: { () } 
Hook actionOrderCloned started
NEW ORDER ID: 5877 
recurring_date updated 

2018-05-17 20:08:41
ORDER ID: 5874 
Cart cloned 
New Order Payment module: monerishosted 
addPayment enter to the function
Add Payment function started 
Add Payment require is done . 1 
Add Payment select is done 
Order Payment Transaction Info: mpgResponse Object
(
    [responseData] => Array
        (
            [DataKey] => null
            [ReceiptId] => null
            [ReferenceNum] => null
            [ResponseCode] => 983
            [ISO] => null
            [AuthCode] => null
            [Message] => Can not find previous
            [TransTime] => null
            [TransDate] => null
            [TransType] => null
            [Complete] => false
            [TransAmount] => null
            [CardType] => null
            [TransID] => null
            [TimedOut] => false
            [CorporateCard] => null
            [RecurSuccess] => null
            [AvsResultCode] => null
            [CvdResultCode] => null
            [ResSuccess] => false
            [PaymentType] => null
            [IsVisaDebit] => null
            [ResolveData] => null
        )

    [p] => Resource id #84
    [currentTag] => /dev/null
    [purchaseHash] => Array
        (
        )

    [refundHash] => 
    [correctionHash] => Array
        (
        )

    [isBatchTotals] => 
    [term_id] => 
    [receiptHash] => Array
        (
        )

    [ecrHash] => Array
        (
        )

    [CardType] => 
    [currentTxnType] => 
    [ecrs] => Array
        (
        )

    [cards] => Array
        (
        )

    [cardHash] => Array
        (
        )

    [resolveData] => 
    [resolveDataHash] => 
    [data_key] => 
    [DataKeys] => Array
        (
        )

    [ACSUrl] => 
    [_successful_avs_codes] => Array
        (
            [0] => A
            [1] => B
            [2] => D
            [3] => M
            [4] => P
            [5] => W
            [6] => X
            [7] => Y
            [8] => Z
        )

    [_successful_cvd_codes] => Array
        (
            [0] => 1M
            [1] => 1Y
            [2] => 1P
            [3] => 1S
            [4] => 1U
        )

    [isResolveData] => 0
)
 
OrderPayment ERROR: { () } 
Hook actionOrderCloned started
NEW ORDER ID: 5878 
recurring_date updated 

2018-05-17 20:08:51
ORDER ID: 5873 
Cart cloned 
New Order Payment module: monerishosted 
addPayment enter to the function
Add Payment function started 
Add Payment require is done . 1 
Add Payment select is done 
Order Payment Transaction Info: mpgResponse Object
(
    [responseData] => Array
        (
            [DataKey] => null
            [ReceiptId] => null
            [ReferenceNum] => null
            [ResponseCode] => 983
            [ISO] => null
            [AuthCode] => null
            [Message] => Can not find previous
            [TransTime] => null
            [TransDate] => null
            [TransType] => null
            [Complete] => false
            [TransAmount] => null
            [CardType] => null
            [TransID] => null
            [TimedOut] => false
            [CorporateCard] => null
            [RecurSuccess] => null
            [AvsResultCode] => null
            [CvdResultCode] => null
            [ResSuccess] => false
            [PaymentType] => null
            [IsVisaDebit] => null
            [ResolveData] => null
        )

    [p] => Resource id #159
    [currentTag] => /dev/null
    [purchaseHash] => Array
        (
        )

    [refundHash] => 
    [correctionHash] => Array
        (
        )

    [isBatchTotals] => 
    [term_id] => 
    [receiptHash] => Array
        (
        )

    [ecrHash] => Array
        (
        )

    [CardType] => 
    [currentTxnType] => 
    [ecrs] => Array
        (
        )

    [cards] => Array
        (
        )

    [cardHash] => Array
        (
        )

    [resolveData] => 
    [resolveDataHash] => 
    [data_key] => 
    [DataKeys] => Array
        (
        )

    [ACSUrl] => 
    [_successful_avs_codes] => Array
        (
            [0] => A
            [1] => B
            [2] => D
            [3] => M
            [4] => P
            [5] => W
            [6] => X
            [7] => Y
            [8] => Z
        )

    [_successful_cvd_codes] => Array
        (
            [0] => 1M
            [1] => 1Y
            [2] => 1P
            [3] => 1S
            [4] => 1U
        )

    [isResolveData] => 0
)
 
OrderPayment ERROR: { () } 
Hook actionOrderCloned started
NEW ORDER ID: 5879 
recurring_date updated 

2018-05-17 20:09:00
ORDER ID: 5827 
Cart cloned 
New Order Payment module: monerishosted 
addPayment enter to the function
Add Payment function started 
Add Payment require is done . 1 
Add Payment select is done 
Order Payment Transaction Info: mpgResponse Object
(
    [responseData] => Array
        (
            [DataKey] => null
            [ReceiptId] => null
            [ReferenceNum] => null
            [ResponseCode] => 983
            [ISO] => null
            [AuthCode] => null
            [Message] => Can not find previous
            [TransTime] => null
            [TransDate] => null
            [TransType] => null
            [Complete] => false
            [TransAmount] => null
            [CardType] => null
            [TransID] => null
            [TimedOut] => false
            [CorporateCard] => null
            [RecurSuccess] => null
            [AvsResultCode] => null
            [CvdResultCode] => null
            [ResSuccess] => false
            [PaymentType] => null
            [IsVisaDebit] => null
            [ResolveData] => null
        )

    [p] => Resource id #264
    [currentTag] => /dev/null
    [purchaseHash] => Array
        (
        )

    [refundHash] => 
    [correctionHash] => Array
        (
        )

    [isBatchTotals] => 
    [term_id] => 
    [receiptHash] => Array
        (
        )

    [ecrHash] => Array
        (
        )

    [CardType] => 
    [currentTxnType] => 
    [ecrs] => Array
        (
        )

    [cards] => Array
        (
        )

    [cardHash] => Array
        (
        )

    [resolveData] => 
    [resolveDataHash] => 
    [data_key] => 
    [DataKeys] => Array
        (
        )

    [ACSUrl] => 
    [_successful_avs_codes] => Array
        (
            [0] => A
            [1] => B
            [2] => D
            [3] => M
            [4] => P
            [5] => W
            [6] => X
            [7] => Y
            [8] => Z
        )

    [_successful_cvd_codes] => Array
        (
            [0] => 1M
            [1] => 1Y
            [2] => 1P
            [3] => 1S
            [4] => 1U
        )

    [isResolveData] => 0
)
 
OrderPayment ERROR: { () } 
Hook actionOrderCloned started
NEW ORDER ID: 5880 
recurring_date updated 

2018-05-17 20:09:14
ORDER ID: 5826 
Cart cloned 
New Order Payment module: monerishosted 
addPayment enter to the function
Add Payment function started 
Add Payment require is done . 1 
Add Payment select is done 
Order Payment Transaction Info: mpgResponse Object
(
    [responseData] => Array
        (
            [DataKey] => null
            [ReceiptId] => null
            [ReferenceNum] => null
            [ResponseCode] => 983
            [ISO] => null
            [AuthCode] => null
            [Message] => Can not find previous
            [TransTime] => null
            [TransDate] => null
            [TransType] => null
            [Complete] => false
            [TransAmount] => null
            [CardType] => null
            [TransID] => null
            [TimedOut] => false
            [CorporateCard] => null
            [RecurSuccess] => null
            [AvsResultCode] => null
            [CvdResultCode] => null
            [ResSuccess] => false
            [PaymentType] => null
            [IsVisaDebit] => null
            [ResolveData] => null
        )

    [p] => Resource id #369
    [currentTag] => /dev/null
    [purchaseHash] => Array
        (
        )

    [refundHash] => 
    [correctionHash] => Array
        (
        )

    [isBatchTotals] => 
    [term_id] => 
    [receiptHash] => Array
        (
        )

    [ecrHash] => Array
        (
        )

    [CardType] => 
    [currentTxnType] => 
    [ecrs] => Array
        (
        )

    [cards] => Array
        (
        )

    [cardHash] => Array
        (
        )

    [resolveData] => 
    [resolveDataHash] => 
    [data_key] => 
    [DataKeys] => Array
        (
        )

    [ACSUrl] => 
    [_successful_avs_codes] => Array
        (
            [0] => A
            [1] => B
            [2] => D
            [3] => M
            [4] => P
            [5] => W
            [6] => X
            [7] => Y
            [8] => Z
        )

    [_successful_cvd_codes] => Array
        (
            [0] => 1M
            [1] => 1Y
            [2] => 1P
            [3] => 1S
            [4] => 1U
        )

    [isResolveData] => 0
)
 
OrderPayment ERROR: { () } 
Hook actionOrderCloned started
NEW ORDER ID: 5881 
recurring_date updated 

2018-05-17 20:09:27
ORDER ID: 5768 
Cart cloned 
New Order Payment module: monerishosted 
addPayment enter to the function
Add Payment function started 
Add Payment require is done . 1 
Add Payment select is done 
Order Payment Transaction Info: mpgResponse Object
(
    [responseData] => Array
        (
            [DataKey] => null
            [ReceiptId] => null
            [ReferenceNum] => null
            [ResponseCode] => 983
            [ISO] => null
            [AuthCode] => null
            [Message] => Can not find previous
            [TransTime] => null
            [TransDate] => null
            [TransType] => null
            [Complete] => false
            [TransAmount] => null
            [CardType] => null
            [TransID] => null
            [TimedOut] => false
            [CorporateCard] => null
            [RecurSuccess] => null
            [AvsResultCode] => null
            [CvdResultCode] => null
            [ResSuccess] => false
            [PaymentType] => null
            [IsVisaDebit] => null
            [ResolveData] => null
        )

    [p] => Resource id #444
    [currentTag] => /dev/null
    [purchaseHash] => Array
        (
        )

    [refundHash] => 
    [correctionHash] => Array
        (
        )

    [isBatchTotals] => 
    [term_id] => 
    [receiptHash] => Array
        (
        )

    [ecrHash] => Array
        (
        )

    [CardType] => 
    [currentTxnType] => 
    [ecrs] => Array
        (
        )

    [cards] => Array
        (
        )

    [cardHash] => Array
        (
        )

    [resolveData] => 
    [resolveDataHash] => 
    [data_key] => 
    [DataKeys] => Array
        (
        )

    [ACSUrl] => 
    [_successful_avs_codes] => Array
        (
            [0] => A
            [1] => B
            [2] => D
            [3] => M
            [4] => P
            [5] => W
            [6] => X
            [7] => Y
            [8] => Z
        )

    [_successful_cvd_codes] => Array
        (
            [0] => 1M
            [1] => 1Y
            [2] => 1P
            [3] => 1S
            [4] => 1U
        )

    [isResolveData] => 0
)
 
OrderPayment ERROR: { () } 
Hook actionOrderCloned started
NEW ORDER ID: 5882 
recurring_date updated 

Add Payment function started 
Add Payment require is done . 1 
Add Payment select is done 
Order Payment Transaction Info: mpgResponse Object
(
    [responseData] => Array
        (
            [DataKey] => null
            [ReceiptId] => null
            [ReferenceNum] => null
            [ResponseCode] => 983
            [ISO] => null
            [AuthCode] => null
            [Message] => Can not find previous
            [TransTime] => null
            [TransDate] => null
            [TransType] => null
            [Complete] => false
            [TransAmount] => null
            [CardType] => null
            [TransID] => null
            [TimedOut] => false
            [CorporateCard] => null
            [RecurSuccess] => null
            [AvsResultCode] => null
            [CvdResultCode] => null
            [ResSuccess] => false
            [PaymentType] => null
            [IsVisaDebit] => null
            [ResolveData] => null
        )

    [p] => Resource id #8
    [currentTag] => /dev/null
    [purchaseHash] => Array
        (
        )

    [refundHash] => 
    [correctionHash] => Array
        (
        )

    [isBatchTotals] => 
    [term_id] => 
    [receiptHash] => Array
        (
        )

    [ecrHash] => Array
        (
        )

    [CardType] => 
    [currentTxnType] => 
    [ecrs] => Array
        (
        )

    [cards] => Array
        (
        )

    [cardHash] => Array
        (
        )

    [resolveData] => 
    [resolveDataHash] => 
    [data_key] => 
    [DataKeys] => Array
        (
        )

    [ACSUrl] => 
    [_successful_avs_codes] => Array
        (
            [0] => A
            [1] => B
            [2] => D
            [3] => M
            [4] => P
            [5] => W
            [6] => X
            [7] => Y
            [8] => Z
        )

    [_successful_cvd_codes] => Array
        (
            [0] => 1M
            [1] => 1Y
            [2] => 1P
            [3] => 1S
            [4] => 1U
        )

    [isResolveData] => 0
)
 
OrderPayment ERROR: { () } 
2018-05-21 20:05:57
ORDER ID: 5522 
Cart cloned 
New Order Payment module: paypalusa 
Hook actionOrderCloned started
NEW ORDER ID: 5883 
recurring_date updated 

2018-05-23 20:05:50
ORDER ID: 5885 
Cart cloned 
New Order Payment module: monerishosted 
addPayment enter to the function
Add Payment function started 
Add Payment require is done . 1 
Add Payment select is done 
Order Payment Transaction Info: mpgResponse Object
(
    [responseData] => Array
        (
            [DataKey] => v3Or57Yk5NhB8ZJ2loO9su5J7
            [ReceiptId] => iso-2607-1462489090
            [ReferenceNum] => 660148420011450060
            [ResponseCode] => 027
            [ISO] => 01
            [AuthCode] => 501044
            [Message] => APPROVED           *                    =
            [TransTime] => 20:05:54
            [TransDate] => 2018-05-23
            [TransType] => 00
            [Complete] => true
            [TransAmount] => 35.47
            [CardType] => V
            [TransID] => 891687-0_11
            [TimedOut] => false
            [CorporateCard] => false
            [RecurSuccess] => null
            [AvsResultCode] => M
            [CvdResultCode] => null
            [ResSuccess] => true
            [PaymentType] => cc
            [IsVisaDebit] => false
            [HostId] => 1F8143723545020
        )

    [p] => Resource id #84
    [currentTag] => /dev/null
    [purchaseHash] => Array
        (
        )

    [refundHash] => 
    [correctionHash] => Array
        (
        )

    [isBatchTotals] => 
    [term_id] => 
    [receiptHash] => Array
        (
        )

    [ecrHash] => Array
        (
        )

    [CardType] => 
    [currentTxnType] => 
    [ecrs] => Array
        (
        )

    [cards] => Array
        (
        )

    [cardHash] => Array
        (
        )

    [resolveData] => Array
        (
            [cust_id] => cust1
            [phone] => 416 787 2465
            [email] => friend5@isomers.ca
            [note] => 
            [expdate] => 2801
            [avs_street_name] => 105 Tycos Drive
            [avs_zipcode] => M6B1W3
            [masked_pan] => 4761***5637
            [crypt_type] => 7
        )

    [resolveDataHash] => 
    [data_key] => 
    [DataKeys] => Array
        (
        )

    [ACSUrl] => 
    [_successful_avs_codes] => Array
        (
            [0] => A
            [1] => B
            [2] => D
            [3] => M
            [4] => P
            [5] => W
            [6] => X
            [7] => Y
            [8] => Z
        )

    [_successful_cvd_codes] => Array
        (
            [0] => 1M
            [1] => 1Y
            [2] => 1P
            [3] => 1S
            [4] => 1U
        )

    [isResolveData] => 0
)
 
OrderPayment completed 
Hook actionOrderCloned started
NEW ORDER ID: 5887 
recurring_date updated 

2018-05-23 20:06:02
ORDER ID: 5884 
Cart cloned 
New Order Payment module: monerishosted 
addPayment enter to the function
Add Payment function started 
Add Payment require is done . 1 
Add Payment select is done 
Order Payment Transaction Info: mpgResponse Object
(
    [responseData] => Array
        (
            [DataKey] => 4RVSx4azM5eQveNPn7XbXFte7
            [ReceiptId] => iso-2608-1864966470
            [ReferenceNum] => 660148420011450070
            [ResponseCode] => 027
            [ISO] => 01
            [AuthCode] => 438041
            [Message] => APPROVED           *                    =
            [TransTime] => 20:06:03
            [TransDate] => 2018-05-23
            [TransType] => 00
            [Complete] => true
            [TransAmount] => 18.52
            [CardType] => V
            [TransID] => 891688-0_11
            [TimedOut] => false
            [CorporateCard] => false
            [RecurSuccess] => null
            [AvsResultCode] => M
            [CvdResultCode] => null
            [ResSuccess] => true
            [PaymentType] => cc
            [IsVisaDebit] => false
            [HostId] => 1F8143723635036
        )

    [p] => Resource id #159
    [currentTag] => /dev/null
    [purchaseHash] => Array
        (
        )

    [refundHash] => 
    [correctionHash] => Array
        (
        )

    [isBatchTotals] => 
    [term_id] => 
    [receiptHash] => Array
        (
        )

    [ecrHash] => Array
        (
        )

    [CardType] => 
    [currentTxnType] => 
    [ecrs] => Array
        (
        )

    [cards] => Array
        (
        )

    [cardHash] => Array
        (
        )

    [resolveData] => Array
        (
            [cust_id] => cust1
            [phone] => 
            [email] => friend4@isomers.ca
            [note] => 
            [expdate] => 2801
            [avs_street_name] => 105 Tycos Drive
            [avs_zipcode] => M6B1W3
            [masked_pan] => 4761***5637
            [crypt_type] => 7
        )

    [resolveDataHash] => 
    [data_key] => 
    [DataKeys] => Array
        (
        )

    [ACSUrl] => 
    [_successful_avs_codes] => Array
        (
            [0] => A
            [1] => B
            [2] => D
            [3] => M
            [4] => P
            [5] => W
            [6] => X
            [7] => Y
            [8] => Z
        )

    [_successful_cvd_codes] => Array
        (
            [0] => 1M
            [1] => 1Y
            [2] => 1P
            [3] => 1S
            [4] => 1U
        )

    [isResolveData] => 0
)
 
OrderPayment completed 
Hook actionOrderCloned started
NEW ORDER ID: 5888 
recurring_date updated 

2018-05-24 20:05:36
ORDER ID: 5885 
Cart cloned 
New Order Payment module: monerishosted 
addPayment enter to the function
Add Payment function started 
Add Payment require is done . 1 
Add Payment select is done 
Order Payment Transaction Info: mpgResponse Object
(
    [responseData] => Array
        (
            [DataKey] => v3Or57Yk5NhB8ZJ2loO9su5J7
            [ReceiptId] => iso-2609-2920478678
            [ReferenceNum] => 660148420011940010
            [ResponseCode] => 027
            [ISO] => 01
            [AuthCode] => 151649
            [Message] => APPROVED           *                    =
            [TransTime] => 20:05:38
            [TransDate] => 2018-05-24
            [TransType] => 00
            [Complete] => true
            [TransAmount] => 41.12
            [CardType] => V
            [TransID] => 895087-0_11
            [TimedOut] => false
            [CorporateCard] => false
            [RecurSuccess] => null
            [AvsResultCode] => M
            [CvdResultCode] => null
            [ResSuccess] => true
            [PaymentType] => cc
            [IsVisaDebit] => false
            [HostId] => 1F8144723381070
        )

    [p] => Resource id #84
    [currentTag] => /dev/null
    [purchaseHash] => Array
        (
        )

    [refundHash] => 
    [correctionHash] => Array
        (
        )

    [isBatchTotals] => 
    [term_id] => 
    [receiptHash] => Array
        (
        )

    [ecrHash] => Array
        (
        )

    [CardType] => 
    [currentTxnType] => 
    [ecrs] => Array
        (
        )

    [cards] => Array
        (
        )

    [cardHash] => Array
        (
        )

    [resolveData] => Array
        (
            [cust_id] => cust1
            [phone] => 416 787 2465
            [email] => friend5@isomers.ca
            [note] => 
            [expdate] => 2801
            [avs_street_name] => 105 Tycos Drive
            [avs_zipcode] => M6B1W3
            [masked_pan] => 4761***5637
            [crypt_type] => 7
        )

    [resolveDataHash] => 
    [data_key] => 
    [DataKeys] => Array
        (
        )

    [ACSUrl] => 
    [_successful_avs_codes] => Array
        (
            [0] => A
            [1] => B
            [2] => D
            [3] => M
            [4] => P
            [5] => W
            [6] => X
            [7] => Y
            [8] => Z
        )

    [_successful_cvd_codes] => Array
        (
            [0] => 1M
            [1] => 1Y
            [2] => 1P
            [3] => 1S
            [4] => 1U
        )

    [isResolveData] => 0
)
 
OrderPayment completed 
Hook actionOrderCloned started
NEW ORDER ID: 5889 
recurring_date updated 

2018-05-24 20:05:47
ORDER ID: 5884 
Cart cloned 
New Order Payment module: monerishosted 
addPayment enter to the function
Add Payment function started 
Add Payment require is done . 1 
Add Payment select is done 
Order Payment Transaction Info: mpgResponse Object
(
    [responseData] => Array
        (
            [DataKey] => 4RVSx4azM5eQveNPn7XbXFte7
            [ReceiptId] => iso-2610-5635234462
            [ReferenceNum] => 660148420011940020
            [ResponseCode] => 027
            [ISO] => 01
            [AuthCode] => 975086
            [Message] => APPROVED           *                    =
            [TransTime] => 20:05:48
            [TransDate] => 2018-05-24
            [TransType] => 00
            [Complete] => true
            [TransAmount] => 16.26
            [CardType] => V
            [TransID] => 895088-0_11
            [TimedOut] => false
            [CorporateCard] => false
            [RecurSuccess] => null
            [AvsResultCode] => M
            [CvdResultCode] => null
            [ResSuccess] => true
            [PaymentType] => cc
            [IsVisaDebit] => false
            [HostId] => 1F8144723481103
        )

    [p] => Resource id #159
    [currentTag] => /dev/null
    [purchaseHash] => Array
        (
        )

    [refundHash] => 
    [correctionHash] => Array
        (
        )

    [isBatchTotals] => 
    [term_id] => 
    [receiptHash] => Array
        (
        )

    [ecrHash] => Array
        (
        )

    [CardType] => 
    [currentTxnType] => 
    [ecrs] => Array
        (
        )

    [cards] => Array
        (
        )

    [cardHash] => Array
        (
        )

    [resolveData] => Array
        (
            [cust_id] => cust1
            [phone] => 
            [email] => friend4@isomers.ca
            [note] => 
            [expdate] => 2801
            [avs_street_name] => 105 Tycos Drive
            [avs_zipcode] => M6B1W3
            [masked_pan] => 4761***5637
            [crypt_type] => 7
        )

    [resolveDataHash] => 
    [data_key] => 
    [DataKeys] => Array
        (
        )

    [ACSUrl] => 
    [_successful_avs_codes] => Array
        (
            [0] => A
            [1] => B
            [2] => D
            [3] => M
            [4] => P
            [5] => W
            [6] => X
            [7] => Y
            [8] => Z
        )

    [_successful_cvd_codes] => Array
        (
            [0] => 1M
            [1] => 1Y
            [2] => 1P
            [3] => 1S
            [4] => 1U
        )

    [isResolveData] => 0
)
 
OrderPayment completed 
Hook actionOrderCloned started
NEW ORDER ID: 5890 
recurring_date updated 

2018-05-25 20:16:57
ORDER ID: 5570 
Cart cloned 
New Order Payment module: paypalusa 
Hook actionOrderCloned started
NEW ORDER ID: 5891 
recurring_date updated 

2018-05-25 20:17:08
ORDER ID: 5542 
Cart cloned 
New Order Payment module: monerishosted 
addPayment enter to the function
Add Payment function started 
Add Payment require is done . 1 
Add Payment select is done 
Order Payment Transaction Info: mpgResponse Object
(
    [responseData] => Array
        (
            [ReceiptId] => null
            [ReferenceNum] => null
            [ResponseCode] => null
            [ISO] => null
            [AuthCode] => null
            [TransTime] => null
            [TransDate] => null
            [TransType] => null
            [Complete] => false
            [Message] => Cancelled: 
Error bad character content for element 'data_key'
__________________

            [TransAmount] => null
            [CardType] => null
            [TransID] => null
            [TimedOut] => false
            [Ticket] => null
        )

    [p] => Resource id #151
    [currentTag] => /dev/null
    [purchaseHash] => Array
        (
        )

    [refundHash] => 
    [correctionHash] => Array
        (
        )

    [isBatchTotals] => 0
    [term_id] => 
    [receiptHash] => Array
        (
        )

    [ecrHash] => Array
        (
        )

    [CardType] => 
    [currentTxnType] => 
    [ecrs] => Array
        (
        )

    [cards] => Array
        (
        )

    [cardHash] => Array
        (
        )

    [resolveData] => 
    [resolveDataHash] => 
    [data_key] => 
    [DataKeys] => Array
        (
        )

    [ACSUrl] => 
    [_successful_avs_codes] => Array
        (
            [0] => A
            [1] => B
            [2] => D
            [3] => M
            [4] => P
            [5] => W
            [6] => X
            [7] => Y
            [8] => Z
        )

    [_successful_cvd_codes] => Array
        (
            [0] => 1M
            [1] => 1Y
            [2] => 1P
            [3] => 1S
            [4] => 1U
        )

)
 
OrderPayment ERROR: { () } 
Hook actionOrderCloned started
NEW ORDER ID: 5892 
recurring_date updated 

2018-05-25 20:17:17
ORDER ID: 5460 
Cart cloned 
New Order Payment module: paypalusa 
Hook actionOrderCloned started
NEW ORDER ID: 5893 
recurring_date updated 

2018-05-29 20:10:54
ORDER ID: 5667 
Cart cloned 
New Order Payment module: monerishosted 
addPayment enter to the function
Add Payment function started 
Add Payment require is done . 1 
Add Payment select is done 
Order Payment Transaction Info: mpgResponse Object
(
    [responseData] => Array
        (
            [DataKey] => tmbBlQfcQYTixnyMJnGmAzwN7
            [ReceiptId] => iso-2614-2909028063
            [ReferenceNum] => 660148420014510010
            [ResponseCode] => 027
            [ISO] => 01
            [AuthCode] => 981118
            [Message] => APPROVED           *                    =
            [TransTime] => 20:10:58
            [TransDate] => 2018-05-29
            [TransType] => 00
            [Complete] => true
            [TransAmount] => 43.00
            [CardType] => V
            [TransID] => 910636-0_11
            [TimedOut] => false
            [CorporateCard] => false
            [RecurSuccess] => null
            [AvsResultCode] => M
            [CvdResultCode] => null
            [ResSuccess] => true
            [PaymentType] => cc
            [IsVisaDebit] => false
            [HostId] => 1F8149726588286
        )

    [p] => Resource id #84
    [currentTag] => /dev/null
    [purchaseHash] => Array
        (
        )

    [refundHash] => 
    [correctionHash] => Array
        (
        )

    [isBatchTotals] => 
    [term_id] => 
    [receiptHash] => Array
        (
        )

    [ecrHash] => Array
        (
        )

    [CardType] => 
    [currentTxnType] => 
    [ecrs] => Array
        (
        )

    [cards] => Array
        (
        )

    [cardHash] => Array
        (
        )

    [resolveData] => Array
        (
            [cust_id] => cust1
            [phone] => 952-944-7099
            [email] => friend1@isomers.ca
            [note] => 
            [expdate] => 2801
            [avs_street_name] => 8034 Pennsylvania Road
            [avs_zipcode] => 55438
            [masked_pan] => 4761***5637
            [crypt_type] => 7
        )

    [resolveDataHash] => 
    [data_key] => 
    [DataKeys] => Array
        (
        )

    [ACSUrl] => 
    [_successful_avs_codes] => Array
        (
            [0] => A
            [1] => B
            [2] => D
            [3] => M
            [4] => P
            [5] => W
            [6] => X
            [7] => Y
            [8] => Z
        )

    [_successful_cvd_codes] => Array
        (
            [0] => 1M
            [1] => 1Y
            [2] => 1P
            [3] => 1S
            [4] => 1U
        )

    [isResolveData] => 0
)
 
OrderPayment completed 
Hook actionOrderCloned started
NEW ORDER ID: 5894 
recurring_date updated 

2018-06-02 20:06:32
ORDER ID: 5764 
Cart cloned 
New Order Payment module: monerishosted 
addPayment enter to the function
Add Payment function started 
Add Payment require is done . 1 
Add Payment select is done 
Order Payment Transaction Info: mpgResponse Object
(
    [responseData] => Array
        (
            [DataKey] => k0i8UdzjiplGIsGTxhrDjwPW7
            [ReceiptId] => iso-2617-2808659242
            [ReferenceNum] => 660148420016470210
            [ResponseCode] => 027
            [ISO] => 01
            [AuthCode] => 521130
            [Message] => APPROVED           *                    =
            [TransTime] => 20:06:32
            [TransDate] => 2018-06-02
            [TransType] => 00
            [Complete] => true
            [TransAmount] => 49.60
            [CardType] => V
            [TransID] => 925760-0_11
            [TimedOut] => false
            [CorporateCard] => false
            [RecurSuccess] => null
            [AvsResultCode] => M
            [CvdResultCode] => null
            [ResSuccess] => true
            [PaymentType] => cc
            [IsVisaDebit] => false
            [HostId] => 1F8153723922630
        )

    [p] => Resource id #114
    [currentTag] => /dev/null
    [purchaseHash] => Array
        (
        )

    [refundHash] => 
    [correctionHash] => Array
        (
        )

    [isBatchTotals] => 
    [term_id] => 
    [receiptHash] => Array
        (
        )

    [ecrHash] => Array
        (
        )

    [CardType] => 
    [currentTxnType] => 
    [ecrs] => Array
        (
        )

    [cards] => Array
        (
        )

    [cardHash] => Array
        (
        )

    [resolveData] => Array
        (
            [cust_id] => cust1
            [phone] => 416 787 2465
            [email] => friend5@isomers.ca
            [note] => 
            [expdate] => 2801
            [avs_street_name] => 105 Tycos Drive
            [avs_zipcode] => M6B1W3
            [masked_pan] => 4761***5637
            [crypt_type] => 7
        )

    [resolveDataHash] => 
    [data_key] => 
    [DataKeys] => Array
        (
        )

    [ACSUrl] => 
    [_successful_avs_codes] => Array
        (
            [0] => A
            [1] => B
            [2] => D
            [3] => M
            [4] => P
            [5] => W
            [6] => X
            [7] => Y
            [8] => Z
        )

    [_successful_cvd_codes] => Array
        (
            [0] => 1M
            [1] => 1Y
            [2] => 1P
            [3] => 1S
            [4] => 1U
        )

    [isResolveData] => 0
)
 
OrderPayment completed 
Hook actionOrderCloned started
NEW ORDER ID: 5896 
recurring_date updated 

2018-06-02 20:06:46
ORDER ID: 5763 
Cart cloned 
New Order Payment module: monerishosted 
addPayment enter to the function
Add Payment function started 
Add Payment require is done . 1 
Add Payment select is done 
Order Payment Transaction Info: mpgResponse Object
(
    [responseData] => Array
        (
            [DataKey] => DHQ6osDy9eoZVnLDmLm4SqwP7
            [ReceiptId] => iso-2618-1511606366
            [ReferenceNum] => 660148420016470220
            [ResponseCode] => 027
            [ISO] => 01
            [AuthCode] => 743241
            [Message] => APPROVED           *                    =
            [TransTime] => 20:06:42
            [TransDate] => 2018-06-02
            [TransType] => 00
            [Complete] => true
            [TransAmount] => 41.12
            [CardType] => V
            [TransID] => 925761-0_11
            [TimedOut] => false
            [CorporateCard] => false
            [RecurSuccess] => null
            [AvsResultCode] => M
            [CvdResultCode] => null
            [ResSuccess] => true
            [PaymentType] => cc
            [IsVisaDebit] => false
            [HostId] => 1F8153724022654
        )

    [p] => Resource id #189
    [currentTag] => /dev/null
    [purchaseHash] => Array
        (
        )

    [refundHash] => 
    [correctionHash] => Array
        (
        )

    [isBatchTotals] => 
    [term_id] => 
    [receiptHash] => Array
        (
        )

    [ecrHash] => Array
        (
        )

    [CardType] => 
    [currentTxnType] => 
    [ecrs] => Array
        (
        )

    [cards] => Array
        (
        )

    [cardHash] => Array
        (
        )

    [resolveData] => Array
        (
            [cust_id] => cust1
            [phone] => 416 787 2465
            [email] => friend5@isomers.ca
            [note] => 
            [expdate] => 2801
            [avs_street_name] => 105 Tycos Drive
            [avs_zipcode] => M6B1W3
            [masked_pan] => 4761***5637
            [crypt_type] => 7
        )

    [resolveDataHash] => 
    [data_key] => 
    [DataKeys] => Array
        (
        )

    [ACSUrl] => 
    [_successful_avs_codes] => Array
        (
            [0] => A
            [1] => B
            [2] => D
            [3] => M
            [4] => P
            [5] => W
            [6] => X
            [7] => Y
            [8] => Z
        )

    [_successful_cvd_codes] => Array
        (
            [0] => 1M
            [1] => 1Y
            [2] => 1P
            [3] => 1S
            [4] => 1U
        )

    [isResolveData] => 0
)
 
OrderPayment completed 
Hook actionOrderCloned started
NEW ORDER ID: 5897 
recurring_date updated 

2018-06-02 20:06:55
ORDER ID: 5762 
Cart cloned 
New Order Payment module: monerishosted 
addPayment enter to the function
Add Payment function started 
Add Payment require is done . 1 
Add Payment select is done 
Order Payment Transaction Info: mpgResponse Object
(
    [responseData] => Array
        (
            [DataKey] => 8TZIzMASXZfQCONUvueD29nj7
            [ReceiptId] => iso-2619-8695998710
            [ReferenceNum] => 660148420016470230
            [ResponseCode] => 027
            [ISO] => 01
            [AuthCode] => 406450
            [Message] => APPROVED           *                    =
            [TransTime] => 20:06:50
            [TransDate] => 2018-06-02
            [TransType] => 00
            [Complete] => true
            [TransAmount] => 41.12
            [CardType] => V
            [TransID] => 925762-0_11
            [TimedOut] => false
            [CorporateCard] => false
            [RecurSuccess] => null
            [AvsResultCode] => M
            [CvdResultCode] => null
            [ResSuccess] => true
            [PaymentType] => cc
            [IsVisaDebit] => false
            [HostId] => 1F8153724102662
        )

    [p] => Resource id #264
    [currentTag] => /dev/null
    [purchaseHash] => Array
        (
        )

    [refundHash] => 
    [correctionHash] => Array
        (
        )

    [isBatchTotals] => 
    [term_id] => 
    [receiptHash] => Array
        (
        )

    [ecrHash] => Array
        (
        )

    [CardType] => 
    [currentTxnType] => 
    [ecrs] => Array
        (
        )

    [cards] => Array
        (
        )

    [cardHash] => Array
        (
        )

    [resolveData] => Array
        (
            [cust_id] => cust1
            [phone] => 416 787 2465
            [email] => friend5@isomers.ca
            [note] => 
            [expdate] => 2801
            [avs_street_name] => 105 Tycos Drive
            [avs_zipcode] => M6B1W3
            [masked_pan] => 4761***5637
            [crypt_type] => 7
        )

    [resolveDataHash] => 
    [data_key] => 
    [DataKeys] => Array
        (
        )

    [ACSUrl] => 
    [_successful_avs_codes] => Array
        (
            [0] => A
            [1] => B
            [2] => D
            [3] => M
            [4] => P
            [5] => W
            [6] => X
            [7] => Y
            [8] => Z
        )

    [_successful_cvd_codes] => Array
        (
            [0] => 1M
            [1] => 1Y
            [2] => 1P
            [3] => 1S
            [4] => 1U
        )

    [isResolveData] => 0
)
 
OrderPayment completed 
Hook actionOrderCloned started
NEW ORDER ID: 5898 
recurring_date updated 

2018-06-27 02:55:54
ORDER ID: 5570 
Cart cloned 
New Order Payment module: paypalusa 
Hook actionOrderCloned started
NEW ORDER ID: 5901 
recurring_date updated 

2018-06-27 02:56:06
ORDER ID: 5542 
Cart cloned 
New Order Payment module: monerishosted 
addPayment enter to the function
Add Payment function started 
Add Payment require is done . 1 
Add Payment select is done 
Order Payment Transaction Info: mpgResponse Object
(
    [responseData] => Array
        (
            [ReceiptId] => null
            [ReferenceNum] => null
            [ResponseCode] => null
            [ISO] => null
            [AuthCode] => null
            [TransTime] => null
            [TransDate] => null
            [TransType] => null
            [Complete] => false
            [Message] => Cancelled: 
Error bad character content for element 'data_key'
__________________

            [TransAmount] => null
            [CardType] => null
            [TransID] => null
            [TimedOut] => false
            [Ticket] => null
        )

    [p] => Resource id #166
    [currentTag] => /dev/null
    [purchaseHash] => Array
        (
        )

    [refundHash] => 
    [correctionHash] => Array
        (
        )

    [isBatchTotals] => 0
    [term_id] => 
    [receiptHash] => Array
        (
        )

    [ecrHash] => Array
        (
        )

    [CardType] => 
    [currentTxnType] => 
    [ecrs] => Array
        (
        )

    [cards] => Array
        (
        )

    [cardHash] => Array
        (
        )

    [resolveData] => 
    [resolveDataHash] => 
    [data_key] => 
    [DataKeys] => Array
        (
        )

    [ACSUrl] => 
    [_successful_avs_codes] => Array
        (
            [0] => A
            [1] => B
            [2] => D
            [3] => M
            [4] => P
            [5] => W
            [6] => X
            [7] => Y
            [8] => Z
        )

    [_successful_cvd_codes] => Array
        (
            [0] => 1M
            [1] => 1Y
            [2] => 1P
            [3] => 1S
            [4] => 1U
        )

)
 
OrderPayment ERROR: { () } 
Hook actionOrderCloned started
NEW ORDER ID: 5902 
recurring_date updated 

2018-06-27 02:56:15
ORDER ID: 5518 
Cart cloned 
New Order Payment module: paypalusa 
Hook actionOrderCloned started
NEW ORDER ID: 5903 
recurring_date updated 

2018-06-27 02:56:23
ORDER ID: 5460 
Cart cloned 
New Order Payment module: paypalusa 
Hook actionOrderCloned started
NEW ORDER ID: 5904 
recurring_date updated 

