Name;Reference;Categories formula
All-in-One Complete Face Firming Serum 30 ml;689;Face, Fine Lines & Wrinkles, Sagging, All-in-ONE Series, Suggested Routines 60
All-in-One Complete Hydra-Fix Rejuvenating Cream 55 ml;218;Face, Dryness, Sagging, All-in-ONE Series, Suggested Routines 60
All-in-ONE Mesmer-Eyez Tightening Eye Formula 30 ml;3112;Eyes, Fine Lines & Wrinkles, Sagging, All-in-ONE Series, Suggested Routines 60
All-in-One Total Daily Cleanser 240 ml;401;Cleansers & Exfoliators, All-in-ONE Series, Suggested Routines 60
Deep Crease Correction 55 ml;1367;Face, Deep Creases & Lines, Dryness, Glutathiosome Series, Suggested Routines 60
Double Duty Cleanser 120 ml;168;Cleansers & Exfoliators, Dryness, Problem Solvers, Suggested Routines 60
Enzyme Peel Serum - Acid Free Restoration 55 ml;172;Cleansers & Exfoliators, Dark Spots or Pigmentation, Redness & Sensitivity, Problem Solvers, Suggested Routines 60
Forever Youth Moisture Cream: Unique Extremophile Complex 55ml;1481;Face, Dryness, Sagging, Problem Solvers, Suggested Routines 60
Glutathiosome High Potency Face Serum 30 ml;858;Face, Deep Creases & Lines, Glutathiosome Series
Re-Affirming Neck & Chin Cream 120 ml;1792;Body, Sagging, Problem Solvers, Suggested Routines 60
Retiniacin Night Renewing Treatment 55 ml;381;Face, Dark Spots or Pigmentation, Problem Solvers, Suggested Routines 60
Ultimate Super Skin Concentrate 55 ml;1445;Face, Sagging, Pro Treatments, Suggested Routines 60
Skin Perfecting Wand - One Touch Concealer 8ml;316;Color Cosmetics, Dark Spots or Pigmentation, Problem Solvers, Suggested Routines 60
