Name;Reference;Categories formula
All-in-One Complete Hydra-Protect Dream Cream 55 ml;1258;Face, Fine Lines & Wrinkles, Dryness, UV Protect & Anti Oxidants, All-in-ONE Series, Suggested Routines 30
All-in-One Total Daily Cleanser 240 ml;401;Cleansers & Exfoliators , All-in-ONE Series, Suggested Routines 30
BB Cream 55 ml;853;Face, Color Cosmetics, Dark Spots or Pigmentation, Problem Solvers, Suggested Routines 30
Daily Exfoliating Cleanser with Tea Tree Extract 240 ml;159;Cleansers & Exfoliators ,Oily & Problematic, Problem Solvers, Suggested Routines 30
Eye Peel: Exfoliate & Renew 30 ml;382;Eyes, Fine Lines & Wrinkles , Problem Solvers, Suggested Routines 30
Fast Lift Eye Serum 30 ml;511;Eyes, Problem Solvers, Suggested Routines 30
Illumi-Bright Vitamin C & Ferulic Skin Booster 30 ml;1963;Face, Dark Spots or Pigmentation, Fine Lines & Wrinkles, Illumi-Bright Series, Suggested Routines 30
Matrixyl Advanced Wrinkle Defense Serum 30 ml;428;Face, Fine Lines & Wrinkles, Matrixyl Advanced Series, Suggested Routines 30
Re-Affirming Neck & Chin Cream 120 ml;1792;Body, Sagging, Problem Solvers, Suggested Routines 30
Retiniacin Night Renewing Treatment 55 ml;381;Face, Dark Spots or Pigmentation, Problem Solvers, Suggested Routines 30
Skin Perfecting Wand - One Touch Concealer 8ml;316;Face, Color Cosmetics, Suggested Routines 30
