id;Active;Name;Parent category;Root category;Description
15;1;Cleansers & Exfoliators;Shop by Product;0;
16;1;Eyes;Shop by Product;0;
17;1;Lips;Shop by Product;0;
18;1;Face;Shop by Product;0;
19;1;Body;Shop by Product;0;
20;1;Neck;Shop by Product;0;
21;1;Hair;Shop by Product;0;
22;1;Masks;Shop by Product;0;
23;1;Pro Treatments;Shop by Product;0;
24;1;Color Cosmetics;Shop by Product;0;
25;1;Discovery Kits;Shop by Product;0;
26;1;Supplements;Shop by Product;0;
