Name;Reference;Categories formula
Accelerated Recovery Serum 30 ml;132;Face, Fine Lines & Wrinkles, Sagging, Problem Solvers
All-in-One Complete Eye Firming Serum 15 ml ;410;Eyes, All-in-ONE Series
All-in-One Complete Face Firming Serum 30 ml;689;Face, Fine Lines & Wrinkles, Sagging, All-in-ONE Series
All-in-One Complete Face Firming Serum 55 ml;409;Face, Fine Lines & Wrinkles, Sagging, All-in-ONE Series
All-in-One Complete Hydra-Fix Rejuvenating Cream 30 ml;712;Face, Dryness, Sagging, All-in-ONE Series
All-in-One Complete Hydra-Fix Rejuvenating Cream 55 ml;218;Face, Dryness, Sagging, All-in-ONE Series
All-in-One Complete Hydra-Protect Dream Cream 30 ml;690;Face, Fine Lines & Wrinkles, Dryness, UV Protect & Anti Oxidants, All-in-ONE Series
All-in-One Complete Hydra-Protect Dream Cream 55 ml;1258;Face, Fine Lines & Wrinkles, Dryness, UV Protect & Anti Oxidants, All-in-ONE Series
All-in-ONE Mesmer-Eyez Tightening Eye Formula 30 ml;3112;Eyes, Fine Lines & Wrinkles, Sagging, All-in-ONE Series
All-in-ONE Nutri-Gym Body Toning Moisturizer 240 ml;3109;Body, Sagging, Dryness, All-in-ONE Series
All-in-One Total Daily Cleanser 120 ml;688;Cleansers & Exfoliators , All-in-ONE Series
All-in-One Total Daily Cleanser 240 ml;401;Cleansers & Exfoliators , All-in-ONE Series
B Calm Anti-Redness Serum 30 ml;3111;Face, Redness & Sensitivity, Problem Solvers
Balancing Mask with Amazonian Clay 60 ml;357;Masks, Oily & Problematic, Problem Solvers
BB Cream 30 ml;1629;Face, Color Cosmetics, Dark Spots or Pigmentation, Problem Solvers
BB Cream 55 ml;853;Face, Color Cosmetics, Dark Spots or Pigmentation, Problem Solvers
Beach Waves Texturizing Sea Salt Spray 120 ml;1965;Hair, Problem Solvers
Ceramide Pro Lipid Serum 30 ml;380;Face, Redness & Sensitivity, Problem Solvers
ChitoFirm Skin Lifing Serum 30 ml;509;Face, Oily & Problematic, Sagging, Problem Solvers
Clear Skin Acne Treatment Cleanser 240 ml;418;Cleansers & Exfoliators , Oily & Problematic, Problem Solvers
Clear Skin Acne Treatment Lotion 120 ml;417;Face, Oily & Problematic, Problem Solvers
Copper P Concentrate Serum 30 ml;156;Face, Fine Lines & Wrinkles, Redness & Sensitivity, Problem Solvers
Copper Rich Mask ;818;Masks, Redness & Sensitivity, Problem Solvers
Daily Control Serum 120 ml;163;Face, Oily & Problematic, Problem Solvers
Daily Control Serum 30 ml;665;Face, Oily & Problematic, Problem Solvers
Daily Exfoliating Cleanser with Tea Tree Extract 120ml;482;Cleansers & Exfoliators ,Oily & Problematic, Problem Solvers
Daily Exfoliating Cleanser with Tea Tree Extract 240 ml;159;Cleansers & Exfoliators , Oily & Problematic, Problem Solvers
Daily Exfoliating Serum 55 ml;164;Cleansers & Exfoliators , Fine Lines & Wrinkles, Dark Spots or Pigmentation, Problem Solvers
Deep Crease Correction 55 ml;1367;Face, Deep Creases & Lines, Dryness, Glutathiosome Series
Double Duty Cleanser 120 ml;168;Cleansers & Exfoliators, Dryness, Problem Solvers
Enzyme Peel Serum - Acid Free Restoration 55 ml;172;Cleansers & Exfoliators, Dark Spots or Pigmentation, Redness & Sensitivity, Problem Solvers
Eyelash Protein Treatment 8 ml;174;Eyes, Problem Solvers
Fast Lift Eye Serum 30 ml;511;Eyes, Problem Solvers
Foaming Facial Cleanser 120 ml;719;Face, Oily & Problematic, Problem Solvers
Foot and Leg Genius Relief Cream;1449;Body, Dryness, Problem Solvers
Forever Youth Moisture Cream: Unique Extremophile Complex 55ml;1481;Face, Dryness, Sagging, Problem Solvers
Glutathiosome High Potency Face Serum 30 ml;858;Face, Deep Creases & Lines, Glutathiosome Series
Glutathiosome High Potency Face Serum 15 ml;1634;Face, Deep Creases & Lines, Glutathiosome Series
Glutathiosome: Lifting Eye Veil 15 ml;1633;Eyes, Sagging, Glutathiosome Series
Golden Goddess Self-Tanner 500 ml;1314;Face, Body, Problem Solvers
Gommage Therapy for Body 240 ml;1313;Body, Problem Solvers
H PUR 100 Advanced 30 ml;184;Face, Fine Lines & Wrinkles, Dryness, Pro Treatments
Hair Growth Inhibitor 240 ml;3110;Body, Face, Problem Solvers
Healthy Nails & Cuticle Renewal Formula 30 ml;667;Body, Problem Solvers
High Definition Primer 55 ml;323;Face, Color Cosmetics, Problem Solvers
Illumi-Bright Hand & Body Cream 240 ml;1643;Body, Dark Spots or Pigmentation, Illumi-Bright Series
Illumi-Bright Skin Brightening Formula 30 ml;1579;Face, Dark Spots or Pigmentation, Illumi-Bright Series
Illumi-Bright Vitamin C & Ferulic Skin Booster 30 ml;1963;Face, Dark Spots or Pigmentation, Fine Lines & Wrinkles, Illumi-Bright Series
ISOMERS Bio Nutritional;1550;Supplements, Supplements
ISOMERS for Men - Moisture Cream 55 ml;208;Face, Dryness, Sagging, Men
ISOMERS for Men - Eye Serum 30 ml;177;Eyes, Men
ISOMERS for Men - Facial Serum 30 ml;176;Face, Fine Lines & Wrinkles, Men
ISOMERS for Men - Shave Cream & Cleanser  240 ml;209;Cleansers & Exfoliators, Men
Kombucha Enzyme Mask 30 ml;1578;Masks, Dark Spots or Pigmentation, Fine Lines & Wrinkles, Problem Solvers
Lip Exfoliating Balm 5 ml;326;Lips, Cleansers & Exfoliators, Problem Solvers
Lip Hydrating and Protecting Balm 5 ml;194;Lips, Dryness, Problem Solvers
Matrixyl Advanced Radiant Touch 15 ml;429;Face, Color Cosmetics, Fine Lines & Wrinkles, Matrixyl Advanced Series
Matrixyl Advanced Wrinkle Defense Cream 55 ml;253;Face, Fine Lines & Wrinkles, Dryness, Matrixyl Advanced Series
Matrixyl Advanced Wrinkle Defense Serum 30 ml;428;Face, Fine Lines & Wrinkles, Matrixyl Advanced Series
Micro Derm Pro Peel 3-Step System ;1915;Face, Oily & Problematic, Dark Spots or Pigmentation, Pro Treatments
Moisture Mask 60 ml;747;Masks, Dryness, Problem Solvers
Moroccan Gommage Therapy for Body 240 ml;1650;Body, Problem Solvers
Nutri Fusion Phyto Mist 240 ml;1553;Face, Problem Solvers
ONE for Lips - The Clear 8 ml;197;Lips, Color Cosmetics, All-in-ONE Series
ONE for Lips - The Cocoa 8 ml;351;Lips, Color Cosmetics, All-in-ONE Series
ONE for Lips - The Pink 8 ml;352;Lips, Color Cosmetics, All-in-ONE Series
Pore Minimizer Refining Complex 30 ml;345;Face, Oily & Problematic, Problem Solvers
