Name;Reference;Quantity;Tax Rules ID
Acetyl Hexapeptide-8: 15% Argireline Concentrate 15 ml;135;1;2
DEODRY: Deodorant/Anti-Perspirant 90 ml;165;64;2
Eye Peel: Exfoliate & Renew 30 ml;382;19;2
Eyelash Protein Treatment 8 ml;174;12;2
It's Gorgeous Foundation Shade 1 15 ml;317;3;2
It's Gorgeous Foundation Shade 3 15 ml;319;2;2
Matrixyl 20% Collagen Boosting Concentrate 55 ml;411;1;2
Matrixyl 20% Maximum Defense Body Cream 240 ml;1871;6;2
Matrixyl Advanced Radiant Touch 15 ml;429;2;2
PM 2.5 Pollution Defense Cream 55 ml;1987;408;2
Reveal N' Renew Thermal Microdermabrasion Mask 55 ml;524;86;2
