Name;Reference;Images
Accelerated Recovery Face Lifting Serum 30 ml;132;http://secure.isomers.ca/catalog_images/Accelerated Recovery Face Lifting Serum TT 30 ml.jpg
Acetyl Hexapeptide-8 15% Expression Line Solution 15 ml;135;http://secure.isomers.ca/catalog_images/Acetyl Hexapeptide-8 15% Expression Line Solution TT 15 ml.jpg
All-in-One Complete Face Firming Serum 30 ml;689;http://secure.isomers.ca/catalog_images/AIO Complete Face Firming Serum TT 55 ml.jpg
All-in-One Complete Hydra-Fix Rejuvenating Cream 55 ml;218;http://secure.isomers.ca/catalog_images/AIO Complete Hydra-Fix Rejuvenating Cream TT 55 ml.jpg
All-in-One Total Daily Cleanser 240 ml;401;http://secure.isomers.ca/catalog_images/All-in-One Total Daily Cleanser TT 240 ml .jpg
BB Cream 55 ml;853;http://secure.isomers.ca/catalog_images/BB Cream TT 55 ml.jpg
Daily Control Serum with  Tea Tree Extract 120 ml;163;http://secure.isomers.ca/catalog_images/Daily Control Serum with Tea Tree Extract TT 120 ml.jpg
Daily Exfoliating Serum 55 ml;164;http://secure.isomers.ca/catalog_images/Daily Exfoliating Serum TT 55 ml.jpg
Double Duty Cleanser 120 ml;168;http://secure.isomers.ca/catalog_images/Double Duty Cleanser TT 120 ml.jpg
Enzyme Peel Acid Free Restoration 55 ml;172;http://secure.isomers.ca/catalog_images/Enzyme Peel Acid Free Restoration TT 55 ml.jpg
Eye Peel Exfoliate & Renew 30 ml;382;http://secure.isomers.ca/catalog_images/Eye Peel Exfoliate & Renew TT 30 ml.jpg
Gommage Therapy for Body 240 ml;1313;http://secure.isomers.ca/catalog_images/Gommage Therapy for Body TT 240 ml .jpg
H PUR 100 Advanced Moisture Magnet 30 ml;184;http://secure.isomers.ca/catalog_images/H PUR 100 Advanced Moisture Magnet TT 30 ml.jpg
Healthy Nails & Cuticle Renewal Formula 30 ml;667;http://secure.isomers.ca/catalog_images/Healthy Nails & Cuticle Renewal Formula TT 30 ml.jpg
High Definition Primer because life is high definition 55 ml;323;http://secure.isomers.ca/catalog_images/High Definition Primer because life is high definition TT 55 ml.jpg
