Name;Reference;Image;Meta keywords;Short Description;Price tax excluded;Visibility;Available;Quantity;Weight g (old);Weight kg;Delete existing image;Tax Rules ID
Accelerated Recovery Cream 55ml;133;https://secure.isomers.ca/catalog_images/Accerated Recovery Age Contouring Cream 55 ml.jpg;skin tightening, sagging, moisture, firm, anti age;55 ml/1.86 fl oz us /1.94 fl oz uk;45;none;0;4;127;0.127;1;2
MATRIXYL Maxi Lip II 8 ml;205;https://secure.isomers.ca/catalog_images/Maxi Lip II 8 ml TT.jpg;;8mL 0.27 fl. oz. us/0.28 fl.oz. uk;20;none;1;8;18;0.018;1;2
R Pur Decadence (Day Formula) 55 ml;383;https://secure.isomers.ca/catalog_images/R-Pur Decadence Germinating Soy Extracts Day Formula 55 ml.jpg;;55 m/ 1.86 fl oz;160;none;2;6;127;0.127;1;2
Uplift Crema Seno 120 ml;450;https://secure.isomers.ca/catalog_images/Uplift crema seno 120 ml.jpg;"bust firming; volufirming; breast";120 ml;12;none;3;43;150;0.15;1;2
Perfecting Lotion 120 ml;451;https://secure.isomers.ca/catalog_images/Perfecting Lotion 120 ml.jpg;"pores; black heads; pimples";120 ml / 4 oz;30;none;4;27;140;0.14;1;2
Synchronizer Cell Renewing Complex 55ml;481;https://secure.isomers.ca/catalog_images/Synchronizer Cell Renewing Complex 55 ml.jpg;"desquamation; renewing; exfoliation; acid free; keyloid; ";55 ml / 1.86 fl oz us ;40;none;5;14;127;0.127;1;2
All-in-One Complete Eye Firming Serum 30 ml;502;https://secure.isomers.ca/catalog_images/AIO Complete Eye Firming Serum 30 ml New.jpg;one 3000, matrixyl, hyloxyl, dark circles, puffiness, milia, bags, hyluornic acid, lipolight, oligopeptide, tripeptide, MDI complex, ;30ml/ 1 fl oz;60;none;6;30;79;0.079;1;2
Lip & Cheek Tint 15 ml;515;https://secure.isomers.ca/catalog_images/Lip and Cheek Tint 15 ml.jpg;;15 ml/ 0.51 fl oz;20;none;7;58;52;0.052;1;2
Relysage Wrinkle Liberator 55 ml;716;https://secure.isomers.ca/catalog_images/Relysage Wrinkle Liberator 55 ml.jpg;;55 ml/ 1.86 oz;70;none;8;242;127;0.127;1;2
Glorious Rejuvenating Body Wash 240 ml;958;https://secure.isomers.ca/catalog_images/Glorious Rejuvenating Body Wash 240 ml.jpg;;240ml / 8.12 fl. oz. us / 8.45 fl. oz. uk;12;none;9;33;270;0.27;1;2
Glorious Rejuvenating Body Cream 240 ml;959;https://secure.isomers.ca/catalog_images/Glorious Rejuvenating Body Cream 240 ml.jpg;;240ml / 8.12 fl. oz. us / 8.45 fl. oz. uk;23;none;10;31;270;0.27;1;2
Wrinkle Defense Franken-Myrrh Hand Wash 240 ml;960;https://secure.isomers.ca/catalog_images/Wrinkle Defence Franken-Myrrh Hydrating Hand Wash 240 ml.jpg;;240ml / 8.12 fl. oz. us / 8.45 fl. oz. uk;12;none;11;64;270;0.27;1;2
Vitamin C-STEM Mineral Cleanser 120 ml;1037;https://secure.isomers.ca/catalog_images/Vitamin C-STEM Mineral Cleanser 120 ml.jpg;"skin repair; collagen; mineral; cleanser; pigmentation";120 ml/ 4.06 fl oz;20;none;12;9;140;0.14;1;2
Hair Smoothing Serum: styles, finishes & protects;1138;https://secure.isomers.ca/catalog_images/Hair Smoothing Serum 120 ml.jpg;;120ml/ 4.06 fl oz;25;none;13;29;140;0.14;1;2
Body Elixir Toning-Renewing 120 ml;1230;https://secure.isomers.ca/catalog_images/Body Elixir Toning-Renewing 120 ml.jpg;;120 ml / 4.06 fl oz;25;none;14;26;200;0.2;1;2
Juniper Lemon Mint Body & Hand Wash 240 ml;1428;https://secure.isomers.ca/catalog_images/Juniper Lemon Mint Body & Hand Wash 240 ml.jpg;;240ml/ 8.12 fl oz;15;none;15;57;270;0.27;1;2
Juniper Lemon Mint Body & Hand Cream 240 ml;1431;https://secure.isomers.ca/catalog_images/Juniper Lemon Mint Body & Hand Cream 240 ml.jpg;;240ml/ 8.12 fl oz;15;none;16;74;15;0.015;1;2
R Re-Lift Amino Face Serum 30 ml;1533;https://secure.isomers.ca/catalog_images/Re-Lift Amino Face Serum 30 ml New.jpg;;30ml/ 1 fl oz;50;none;17;52;127;0.127;1;2
Vitamin C-STEM Orange Plasma Peel 30 ml;1570;https://secure.isomers.ca/catalog_images/Vitamin C-STEM ORANGE PLASMA PEEL 30 ml.jpg;;30ml/ 1 fl oz;40;none;18;6;127;0.127;1;2
Moroccan Hydrating Oil 120 ml;1652;https://secure.isomers.ca/catalog_images/Moroccan Hydrating Oil 120 ml.jpg;;120ml/ 4.06 fl oz;25;none;19;4;170;0.17;1;2
NRG Serum: Skin Boosting Concentrate 15ml;1654;https://secure.isomers.ca/catalog_images/NRG Serum Skin Boosting Concentrate 15 ml.jpg;"glutathione, ATP, adonesine triphosphate tired; energy booster; ervitalize";15ml/ 0.51 fl oz;30;none;20;20;50;0.05;1;2
Re-Affirming Neck & Chin Cream 120 ml;1792;https://secure.isomers.ca/catalog_images/Re-Affirming Neck and Chin Cream 120ml.jpg;;120ml 4.06 fL oz us/4.22 fL oz uk;44.99;none;21;1;140;0.14;1;2
Immortal Lip Recovery Serum 8 ml;4293;https://secure.isomers.ca/catalog_images/Immortal Lip Recovery Serum 8 ml.jpg;;8ml/ 0.27 fl oz;42;none;22;73;300;0.3;1;2
