Name;Reference;Categories formula
All-in-One Complete Hydra-Protect Dream Cream 55 ml;1258;Face, Fine Lines & Wrinkles, Dryness, UV Protect & Anti Oxidants, All-in-ONE Series
All-in-ONE Nutri-Gym Body Toning Moisturizer 240 ml;3109;Body, Sagging, Dryness, All-in-ONE Series
